{
  "$schema": "https://themost-framework.github.io/themost/models/2018/2/schema.json",
  "@id": "https://www.imsglobal.org/sites/default/files/Badges/OBv2p0Final/index.html#Evidence",
  "name": "OpenBadgeEvidence",
  "title": "Evidences",
  "entitySet": "Evidences",
  "hidden": true,
  "sealed": false,
  "abstract": false,
  "version": "2.0.1",
  "fields": [
    {
      "@id": "https://universis.io/_id",
      "name": "_id",
      "type": "Integer",
      "nullable": false,
      "primary": true,
      "value": "javascript:return this.newid();"
    },
    {
      "@id": "https://www.imsglobal.org/id",
      "name": "id",
      "type": "URL",
      "nullable": false,
      "editable": false,
      "value": "javascript:return this.newIRI(this.target_id);"
    },
    {
      "@id": "https://www.imsglobal.org/type",
      "name": "type",
      "readonly": true,
      "type": "Text",
      "value": "javascript:return 'Evidence';",
      "nullable": false
    },
    {
      "@id": "https://www.imsglobal.org/narrative",
      "name": "narrative",
      "description": "A narrative that describes the evidence and process of achievement that led to an Assertion.",
      "type": "Note"
    },
    {
      "@id": "https://www.imsglobal.org/name",
      "name": "name",
      "description": "A descriptive title of the evidence.",
      "type": "Text"
    },
    {
      "@id": "https://www.imsglobal.org/description",
      "name": "description",
      "description": "A longer description of the evidence.",
      "type": "Note"
    },
    {
      "@id": "https://www.imsglobal.org/genre",
      "name": "genre",
      "description": "A string that describes the type of evidence. For example, Poetry, Prose, Film.",
      "type": "Text"
    },
    {
      "@id": "https://www.imsglobal.org/audience",
      "name": "audience",
      "description": "A description of the intended audience for a piece of evidence.",
      "type": "Text"
    }
  ],
  "constraints": [
    {
      "type": "unique",
      "fields": [
        "id"
      ]
    }
  ],
  "privileges": [
    {
      "mask": 15,
      "type": "global"
    },
    {
      "mask": 15,
      "type": "global",
      "account": "Administrators"
    }
  ]
}