{
  "$schema": "https://themost-framework.github.io/themost/models/2018/2/schema.json",
  "@id": "https://www.imsglobal.org/sites/default/files/Badges/OBv2p0Final/index.html#BadgeClass",
  "name": "OpenBadgeClass",
  "entitySet": "BadgeClasses",
  "title": "BadgeClasses",
  "hidden": false,
  "sealed": false,
  "abstract": false,
  "version": "2.0.2",
  "fields": [
    {
      "@id": "https://universis.io/_id",
      "name": "_id",
      "type": "Integer",
      "nullable": false,
      "primary": true,
      "value": "javascript:return this.newid();"
    },
    {
      "@id": "https://www.imsglobal.org/id",
      "name": "id",
      "description": "Unique IRI for the BadgeClass. Most platforms to date can only handle HTTP-based IRIs. Issuers using signed assertions are encouraged to publish BadgeClasses using HTTP IRIs but may instead use ephemeral BadgeClasses that use an id in another scheme such as urn:uuid.",
      "type": "URL",
      "nullable": false,
      "editable": false,
      "value": "javascript:return this.newIRI(this.target._id);"
    },
    {
      "@id": "https://www.imsglobal.org/type",
      "name": "type",
      "description": "An additional type for the item, typically used for adding more specific types from external vocabularies in microdata syntax. This is a relationship between something and a class that the thing is in.",
      "type": "Text",
      "value": "javascript:return 'BadgeClass';",
      "readonly": true,
      "nullable": false
    },
    {
      "@id": "https://www.imsglobal.org/name",
      "name": "name",
      "description": "The name of the achievement.",
      "type": "Text",
      "nullable": false
    },
    {
      "@id": "https://www.imsglobal.org/description",
      "name": "description",
      "description": "A short description of the achievement.",
      "type": "Text",
      "nullable": false
    },
    {
      "@id": "https://www.imsglobal.org/image",
      "name": "image",
      "description": "IRI or document representing an image of the achievement. This must be a PNG or SVG image.",
      "type": "OpenBadgeImageObject",
      "nullable": false,
      "mapping": {
        "associationType": "association",
        "parentModel": "OpenBadgeImageObject",
        "parentField": "id",
        "childModel": "OpenBadgeClass",
        "childField": "image"
      }
    },
    {
      "@id": "https://www.imsglobal.org/criteria",
      "name": "criteria",
      "description": "URI or embedded criteria document describing how to earn the achievement.",
      "type": "OpenBadgeCriteria",
      "nullable": true,
      "many": false,
      "nested": true,
      "mapping": {
        "associationType": "association",
        "parentModel": "OpenBadgeCriteria",
        "parentField": "id",
        "childModel": "OpenBadgeClass",
        "childField": "criteria"
      }
    },
    {
      "@id": "https://www.imsglobal.org/issuer",
      "name": "issuer",
      "description": "IRI or document describing the individual, entity, or organization that issued the badge.",
      "type": "OpenBadgeProfile",
      "nullable": false,
      "mapping": {
        "associationType": "association",
        "parentModel": "OpenBadgeProfile",
        "parentField": "id",
        "childModel": "OpenBadgeClass",
        "childField": "issuer"
      }
    },
    {
      "@id": "https://www.imsglobal.org/alignment",
      "name": "alignment",
      "description": "An object describing which objectives or educational standards this badge aligns to, if any.",
      "many": true,
      "type": "OpenBadgeAlignmentObject",
      "mapping": {
        "associationType": "junction",
        "associationAdapter": "BadgeClassAlignments",
        "cascade": "delete",
        "associationObjectField": "badgeClass",
        "associationValueField": "alignment",
        "parentModel": "OpenBadgeClass",
        "parentField": "id",
        "childModel": "OpenBadgeAlignmentObject",
        "childField": "id",
        "privileges": [
          {
            "mask": 15,
            "type": "global"
          },
          {
            "mask": 15,
            "type": "global",
            "account": "Administrators"
          }
        ]
      }
    },
    {
      "@id": "http://universis.io/schemas/tags",
      "name": "tags",
      "description": "A tag that describes the type of achievement.",
      "many": true,
      "type": "Text",
      "mapping": {
        "associationType": "junction",
        "associationAdapter": "BadgeClassTags",
        "cascade": "delete",
        "associationObjectField": "badgeClass",
        "associationValueField": "tag"
      }
    },
    {
      "name": "educationalCredentials",
      "type": "EducationalOccupationalCredentials",
      "many": true,
      "multiplicity": "ZeroOrOne",
      "mapping": {
        "associationType": "junction",
        "associationAdapter": "OpenBadgeClassCredentials2",
        "associationObjectField": "badgeClass",
        "associationValueField": "educationalCredential",
        "cascade": "delete",
        "parentModel": "OpenBadgeClass",
        "parentField": "_id",
        "childModel": "EducationalOccupationalCredentials",
        "childField": "id",
        "privileges": [
          {
            "mask": 15,
            "type": "global"
          },
          {
            "mask": 15,
            "type": "global",
            "account": "Administrators"
          },
          {
            "mask": 1,
            "type": "global",
            "account": "Registrar"
          }
        ]
      }
    }
  ],
  "privileges": [
    {
      "mask": 1,
      "type": "global",
      "account": "*"
    },
    {
      "mask": 15,
      "type": "global"
    },
    {
      "mask": 15,
      "type": "global",
      "account": "Administrators"
    }
  ],
  "constraints": [
    {
      "type": "unique",
      "fields": [
        "id"
      ]
    }
  ],
  "eventListeners": [
    {
      "type": "@themost/data/previous-state-listener"
    },
    {
      "type": "./listeners/AttachEducationalOccupationalCredential"
    }
  ]
}